<?xml version="1.0" encoding="utf-8"?>
<!-- Generator: Adobe Illustrator 22.1.0, SVG Export Plug-In . SVG Version: 6.00 Build 0)  -->
<svg version="1.1" id="Layer_1" xmlns="http://www.w3.org/2000/svg" xmlns:xlink="http://www.w3.org/1999/xlink" x="0px" y="0px"
	 viewBox="0 0 348 348" style="enable-background:new 0 0 348 348;" xml:space="preserve">
<style type="text/css">
	.st0{fill:#3E99BD;}
</style>
<path class="st0" d="M286.6,334.9H61.3c-26.6,0-48.2-21.6-48.2-48.2V61.3c0.1-26.6,21.6-48.2,48.2-48.2h225.3
	c26.7,0,48.3,21.6,48.3,48.2v225.3C334.9,313.3,313.3,334.9,286.6,334.9z M61.3,19.5c-23.1,0-41.8,18.8-41.9,41.9v225.3
	c0,23.1,18.8,41.8,41.9,41.9h225.3c23.1-0.1,41.8-18.8,41.8-41.8V61.3c0-23.1-18.8-41.8-41.9-41.9L61.3,19.5z"/>
<path class="st0" d="M290.6,300.1H57.4c-1.8,0-3.2-1.5-3.2-3.2c0-1.8,1.5-3.2,3.2-3.2h233.2c1.8,0,3.2,1.5,3.2,3.2
	C293.8,298.6,292.3,300.1,290.6,300.1z"/>
<path class="st0" d="M187.7,299.9c-1.8,0-3.2-1.5-3.2-3.2v-16.7h-21.6v16.8c-0.4,1.7-2.2,2.8-3.9,2.4c-1.2-0.3-2.1-1.2-2.4-2.4
	v-19.9c0-1.8,1.5-3.2,3.2-3.2h27.9c1.8,0,3.2,1.5,3.2,3.2v19.9C190.9,298.5,189.5,299.9,187.7,299.9z"/>
<path class="st0" d="M173.7,299.9c-1.8,0-3.2-1.5-3.2-3.2V278c0.4-1.7,2.2-2.8,3.9-2.4c1.2,0.3,2.1,1.2,2.4,2.4v18.6
	C176.8,298.3,175.5,299.8,173.7,299.9z"/>
<path class="st0" d="M103.5,299.9c-1.8,0-3.2-1.5-3.2-3.2v-16.7H78.7v16.8c-0.4,1.7-2.2,2.8-3.9,2.4c-1.2-0.3-2.1-1.2-2.4-2.4v-19.9
	c0-1.8,1.5-3.2,3.2-3.2h27.9c1.8,0,3.2,1.5,3.2,3.2v19.9C106.8,298.5,105.3,299.9,103.5,299.9z"/>
<path class="st0" d="M89.6,299.9c-1.8,0-3.2-1.5-3.2-3.2V278c0.4-1.7,2.2-2.8,3.9-2.4c1.2,0.3,2.1,1.2,2.4,2.4v18.6
	C92.6,298.3,91.3,299.8,89.6,299.9z"/>
<path class="st0" d="M272.3,299.9c-1.8,0-3.2-1.5-3.2-3.2v-16.7h-21.5v16.8c-0.4,1.7-2.2,2.8-3.9,2.4c-1.2-0.3-2.1-1.2-2.4-2.4
	v-19.9c0-1.8,1.5-3.2,3.2-3.2h27.9c1.8,0,3.2,1.5,3.2,3.2v19.9C275.6,298.5,274.1,299.9,272.3,299.9
	C272.3,299.9,272.3,299.9,272.3,299.9z"/>
<path class="st0" d="M258.4,299.9c-1.8,0-3.2-1.5-3.2-3.2V278c-0.4-1.7,0.6-3.5,2.4-3.9c1.7-0.4,3.5,0.6,3.9,2.4
	c0.1,0.5,0.1,1.1,0,1.6v18.6C261.4,298.3,260.1,299.8,258.4,299.9z"/>
<path class="st0" d="M82.6,221.5h-7c-1.7,0.4-3.5-0.6-3.9-2.4c-0.4-1.7,0.6-3.5,2.4-3.9c0.5-0.1,1.1-0.1,1.6,0h7
	c1.7-0.4,3.5,0.6,3.9,2.4c0.4,1.7-0.6,3.5-2.4,3.9C83.6,221.6,83.1,221.6,82.6,221.5z"/>
<path class="st0" d="M82.6,260.7h-7c-1.7,0.4-3.5-0.6-3.9-2.4c-0.4-1.7,0.6-3.5,2.4-3.9c0.5-0.1,1.1-0.1,1.6,0h7
	c1.7-0.4,3.5,0.6,3.9,2.4c0.4,1.7-0.6,3.5-2.4,3.9C83.6,260.8,83.1,260.8,82.6,260.7z"/>
<path class="st0" d="M82.6,241.1h-7c-1.7,0.4-3.5-0.6-3.9-2.4c-0.4-1.7,0.6-3.5,2.4-3.9c0.5-0.1,1.1-0.1,1.6,0h7
	c1.7-0.4,3.5,0.6,3.9,2.4c0.4,1.7-0.6,3.5-2.4,3.9C83.6,241.2,83.1,241.2,82.6,241.1z"/>
<path class="st0" d="M103.5,221.5h-7c-1.7-0.4-2.8-2.2-2.4-3.9c0.3-1.2,1.2-2.1,2.4-2.4h7c1.7,0.4,2.8,2.2,2.4,3.9
	C105.6,220.3,104.7,221.2,103.5,221.5z"/>
<path class="st0" d="M103.5,260.7h-7c-1.7-0.4-2.8-2.2-2.4-3.9c0.3-1.2,1.2-2.1,2.4-2.4h7c1.7,0.4,2.8,2.2,2.4,3.9
	C105.6,259.5,104.7,260.4,103.5,260.7z"/>
<path class="st0" d="M103.5,241.1h-7c-1.7-0.4-2.8-2.2-2.4-3.9c0.3-1.2,1.2-2.1,2.4-2.4h7c1.7,0.4,2.8,2.2,2.4,3.9
	C105.6,239.9,104.7,240.8,103.5,241.1z"/>
<path class="st0" d="M166.7,221.5h-7.1c-1.7,0.4-3.5-0.6-3.9-2.4c-0.4-1.7,0.6-3.5,2.4-3.9c0.5-0.1,1.1-0.1,1.6,0h7
	c1.7-0.4,3.5,0.6,3.9,2.4c0.4,1.7-0.6,3.5-2.4,3.9c-0.5,0.1-1.1,0.1-1.6,0H166.7z"/>
<path class="st0" d="M166.7,260.7h-7.1c-1.7,0.4-3.5-0.6-3.9-2.4c-0.4-1.7,0.6-3.5,2.4-3.9c0.5-0.1,1.1-0.1,1.6,0h7
	c1.7-0.4,3.5,0.6,3.9,2.4c0.4,1.7-0.6,3.5-2.4,3.9c-0.5,0.1-1.1,0.1-1.6,0H166.7z"/>
<path class="st0" d="M166.7,241.1h-7.1c-1.7,0.4-3.5-0.6-3.9-2.4c-0.4-1.7,0.6-3.5,2.4-3.9c0.5-0.1,1.1-0.1,1.6,0h7
	c1.7-0.4,3.5,0.6,3.9,2.4c0.4,1.7-0.6,3.5-2.4,3.9c-0.5,0.1-1.1,0.1-1.6,0H166.7z"/>
<path class="st0" d="M187.7,221.5h-7c-1.7-0.4-2.8-2.2-2.4-3.9c0.3-1.2,1.2-2.1,2.4-2.4h7c1.7,0.4,2.8,2.2,2.4,3.9
	C189.8,220.3,188.8,221.2,187.7,221.5z"/>
<path class="st0" d="M166.7,201.9h-7.1c-1.7,0.4-3.5-0.6-3.9-2.4c-0.4-1.7,0.6-3.5,2.4-3.9c0.5-0.1,1.1-0.1,1.6,0h7
	c1.7-0.4,3.5,0.6,3.9,2.4c0.4,1.7-0.6,3.5-2.4,3.9c-0.5,0.1-1.1,0.1-1.6,0H166.7z"/>
<path class="st0" d="M187.7,201.9h-7c-1.7,0.4-3.5-0.6-3.9-2.4c-0.4-1.7,0.6-3.5,2.4-3.9c0.5-0.1,1.1-0.1,1.6,0h7
	c1.7,0.4,2.8,2.2,2.4,3.9C189.8,200.7,188.8,201.6,187.7,201.9z"/>
<path class="st0" d="M187.7,260.7h-7c-1.7-0.4-2.8-2.2-2.4-3.9c0.3-1.2,1.2-2.1,2.4-2.4h7c1.7,0.4,2.8,2.2,2.4,3.9
	C189.8,259.5,188.8,260.4,187.7,260.7z"/>
<path class="st0" d="M187.7,241.1h-7c-1.7-0.4-2.8-2.2-2.4-3.9c0.3-1.2,1.2-2.1,2.4-2.4h7c1.7,0.4,2.8,2.2,2.4,3.9
	C189.8,239.9,188.8,240.8,187.7,241.1z"/>
<path class="st0" d="M251.4,221.5h-7c-1.7-0.4-2.8-2.2-2.4-3.9c0.3-1.2,1.2-2.1,2.4-2.4h7c1.7,0.4,2.8,2.2,2.4,3.9
	C253.4,220.3,252.5,221.2,251.4,221.5z"/>
<path class="st0" d="M251.4,260.7h-7c-1.7-0.4-2.8-2.2-2.4-3.9c0.3-1.2,1.2-2.1,2.4-2.4h7c1.7,0.4,2.8,2.2,2.4,3.9
	C253.4,259.5,252.5,260.4,251.4,260.7z"/>
<path class="st0" d="M251.4,241.1h-7c-1.7,0.4-3.5-0.6-3.9-2.4c-0.4-1.7,0.6-3.5,2.4-3.9c0.5-0.1,1.1-0.1,1.6,0h7
	c1.7,0.4,2.8,2.2,2.4,3.9C253.4,239.9,252.5,240.8,251.4,241.1z"/>
<path class="st0" d="M272.3,221.5h-7c-1.7-0.4-2.8-2.2-2.4-3.9c0.3-1.2,1.2-2.1,2.4-2.4h7c1.7,0.4,2.8,2.2,2.4,3.9
	C274.4,220.3,273.5,221.2,272.3,221.5z"/>
<path class="st0" d="M251.4,201.9h-7c-1.7-0.4-2.8-2.2-2.4-3.9c0.3-1.2,1.2-2.1,2.4-2.4h7c1.7,0.4,2.8,2.2,2.4,3.9
	C253.4,200.7,252.5,201.6,251.4,201.9z"/>
<path class="st0" d="M272.3,201.9h-7c-1.7-0.4-2.8-2.2-2.4-3.9c0.3-1.2,1.2-2.1,2.4-2.4h7c1.7,0.4,2.8,2.2,2.4,3.9
	C274.4,200.7,273.5,201.6,272.3,201.9z"/>
<path class="st0" d="M272.3,260.7h-7c-1.7-0.4-2.8-2.2-2.4-3.9c0.3-1.2,1.2-2.1,2.4-2.4h7c1.7,0.4,2.8,2.2,2.4,3.9
	C274.4,259.5,273.5,260.4,272.3,260.7z"/>
<path class="st0" d="M272.3,241.1h-7c-1.7-0.4-2.8-2.2-2.4-3.9c0.3-1.2,1.2-2.1,2.4-2.4h7c1.7,0.4,2.8,2.2,2.4,3.9
	C274.4,239.9,273.5,240.8,272.3,241.1z"/>
<path class="st0" d="M174,89.3c-10.2,0-18.4-8.3-18.4-18.4s8.3-18.4,18.4-18.4c10.2,0,18.4,8.3,18.4,18.4S184.1,89.3,174,89.3
	L174,89.3z M174,58.7c-6.7,0-12.1,5.4-12.1,12.1S167.3,83,174,83c6.7,0,12.1-5.4,12.1-12.1C186,64.2,180.6,58.8,174,58.7z"/>
<path class="st0" d="M89.6,110.1c-9.5,0-17.3-7.7-17.3-17.3c0-9.5,7.7-17.3,17.3-17.3c9.5,0,17.3,7.7,17.3,17.3c0,0,0,0,0,0.1
	C106.8,102.4,99.1,110.1,89.6,110.1z M89.6,81.9c-6.1,0-11,4.9-11,11s4.9,11,11,11c6,0,10.9-4.9,11-10.9
	C100.6,86.9,95.7,81.9,89.6,81.9C89.6,81.9,89.6,81.9,89.6,81.9z"/>
<path class="st0" d="M258.4,75.7c-8,0-14.4-6.5-14.4-14.4s6.5-14.4,14.4-14.4s14.4,6.5,14.4,14.4v0
	C272.8,69.2,266.4,75.6,258.4,75.7z M258.4,52.9c-4.5,0-8.1,3.6-8.1,8.1c0,4.5,3.6,8.1,8.1,8.1c4.5,0,8.1-3.6,8.1-8.1
	c-0.1-4.4-3.7-8-8.1-8V52.9z"/>
<path class="st0" d="M132.8,60.2c-5.8-0.1-10.4-4.8-10.3-10.6c0.1-5.8,4.8-10.4,10.6-10.3c5.7,0.1,10.3,4.7,10.3,10.5
	C143.4,55.6,138.7,60.3,132.8,60.2C132.9,60.2,132.8,60.2,132.8,60.2z M132.8,45.6c-2.3,0-4.2,1.8-4.2,4.1s1.8,4.2,4.1,4.2
	c2.3,0,4.2-1.8,4.2-4.1c0,0,0,0,0-0.1C136.9,47.5,135.1,45.7,132.8,45.6z"/>
<path class="st0" d="M223.8,106.1c-5.8,0-10.4-4.7-10.4-10.5c0-5.8,4.7-10.4,10.5-10.4c5.8,0,10.4,4.7,10.4,10.5
	C234.3,101.4,229.6,106.1,223.8,106.1z M223.8,91.5c-2.3,0-4.2,1.9-4.2,4.2s1.9,4.2,4.2,4.2c2.3,0,4.2-1.9,4.2-4.2c0,0,0,0,0,0
	C228,93.4,226.1,91.5,223.8,91.5z"/>
<path class="st0" d="M62.2,299.9c-1.8,0-3.2-1.5-3.2-3.2v-90.2c0-0.8,0.3-1.6,0.9-2.2l27.4-27.4c1.2-1.2,3.2-1.2,4.4,0l27.4,27.4
	c0.6,0.6,0.9,1.4,0.9,2.2v8.8h21.7c1.7,0.4,2.8,2.2,2.4,3.9c-0.3,1.2-1.2,2.1-2.4,2.4h-24.9c-1.8,0-3.2-1.5-3.2-3.2v-10.6
	l-24.2-24.2l-24.2,24.2v89C65.2,298.4,63.9,299.7,62.2,299.9z"/>
<path class="st0" d="M285.8,299.9c-1.8,0-3.2-1.5-3.2-3.2V182.1h-48.2v36.2c0,1.8-1.5,3.2-3.2,3.2l-23.8-0.1
	c-1.7,0.4-3.5-0.6-3.9-2.4c-0.4-1.7,0.6-3.5,2.4-3.9c0.5-0.1,1.1-0.1,1.6,0l20.6,0.1V179c0-1.8,1.5-3.2,3.2-3.2h54.8
	c1.8,0,3.2,1.5,3.2,3.2v117.7C289,298.5,287.5,299.9,285.8,299.9z"/>
<path class="st0" d="M218.6,300.1c-1.8,0-3.2-1.5-3.2-3.2V241h-9.2c-1.8,0-3.2-1.5-3.2-3.2v-55.6H194c-1.8,0-3.2-1.5-3.2-3.2V170
	h-33.6v9c0,1.8-1.5,3.2-3.2,3.2H145v55.6c0,1.8-1.5,3.2-3.2,3.2h-9.2v53.7c0.4,1.7-0.6,3.5-2.4,3.9c-1.7,0.4-3.5-0.6-3.9-2.4
	c-0.1-0.5-0.1-1.1,0-1.6v-57c0-1.8,1.5-3.2,3.2-3.2h9.3V179c0-1.8,1.5-3.2,3.2-3.2h9v-8.9c0-1.8,1.5-3.2,3.2-3.2H194
	c1.8,0,3.2,1.5,3.2,3.2v9h9c1.8,0,3.2,1.5,3.2,3.2v55.6h9.3c1.8,0,3.2,1.5,3.2,3.2V297C221.9,298.8,220.3,300.2,218.6,300.1z"/>
<path class="st0" d="M159.6,67c-0.5,0-1-0.1-1.4-0.3l-19.6-9.8c-1.7-0.4-2.8-2.2-2.4-3.9c0.4-1.7,2.2-2.8,3.9-2.4
	c0.5,0.1,0.9,0.3,1.2,0.6l19.6,9.8c1.5,0.9,2.1,2.9,1.2,4.4C161.6,66.3,160.7,66.9,159.6,67z"/>
<path class="st0" d="M216.5,95.2c-0.5,0-1-0.1-1.4-0.3l-27.6-13.7c-1.8-0.4-2.9-2.1-2.5-3.9c0.4-1.8,2.1-2.9,3.9-2.5
	c0.5,0.1,1,0.4,1.4,0.7l27.8,13.7c1.5,1,2,3,1,4.5c-0.5,0.8-1.4,1.4-2.4,1.5H216.5z"/>
<path class="st0" d="M100.6,84.9c-1.8-0.1-3.1-1.7-3-3.5c0-0.7,0.3-1.4,0.8-1.9l26-25.7c0.9-1.5,2.9-2,4.5-1.1
	c1.5,0.9,2,2.9,1.1,4.5c-0.3,0.4-0.6,0.8-1.1,1.1l-26,25.7C102.3,84.6,101.5,84.9,100.6,84.9z"/>
<path class="st0" d="M89.6,160.3L89.6,160.3c1.7,0,3.1,1.4,3.1,3.1v3.1c0,1.7-1.4,3.1-3.1,3.1h0c-1.7,0-3.1-1.4-3.1-3.1v-3.1
	C86.4,161.7,87.8,160.3,89.6,160.3z"/>
<path class="st0" d="M89.6,141.5L89.6,141.5c1.7,0,3.1,1.4,3.1,3.1v3.1c0,1.7-1.4,3.1-3.1,3.1h0c-1.7,0-3.1-1.4-3.1-3.1v-3.1
	C86.4,142.9,87.8,141.5,89.6,141.5z"/>
<path class="st0" d="M89.6,122.6L89.6,122.6c1.7,0,3.1,1.4,3.1,3.1v3.1c0,1.7-1.4,3.1-3.1,3.1h0c-1.7,0-3.1-1.4-3.1-3.1v-3.1
	C86.4,124,87.8,122.6,89.6,122.6z"/>
<path class="st0" d="M258.4,169.7L258.4,169.7c-1.7,0-3.1-1.4-3.1-3.1v-3.1c0-1.7,1.4-3.1,3.1-3.1l0,0c1.7,0,3.1,1.4,3.1,3.1v3.1
	C261.5,168.3,260.1,169.7,258.4,169.7z"/>
<path class="st0" d="M258.4,150.9L258.4,150.9c-1.7,0-3.1-1.4-3.1-3.1v-3.1c0-1.7,1.4-3.1,3.1-3.1l0,0c1.7,0,3.1,1.4,3.1,3.1v3.1
	C261.5,149.5,260.1,150.9,258.4,150.9z"/>
<path class="st0" d="M258.4,132.1L258.4,132.1c-1.7,0-3.1-1.4-3.1-3.1v-3.1c0-1.7,1.4-3.1,3.1-3.1l0,0c1.7,0,3.1,1.4,3.1,3.1v3.1
	C261.5,130.7,260.1,132.1,258.4,132.1z"/>
<path class="st0" d="M258.4,113.2L258.4,113.2c-1.7,0-3.1-1.4-3.1-3.1v-3.1c0-1.7,1.4-3.1,3.1-3.1l0,0c1.7,0,3.1,1.4,3.1,3.1v3.1
	C261.5,111.8,260.1,113.2,258.4,113.2z"/>
<path class="st0" d="M258.4,94.4L258.4,94.4c-1.7,0-3.1-1.4-3.1-3.1v-3.1c0-1.7,1.4-3.1,3.1-3.1l0,0c1.7,0,3.1,1.4,3.1,3.1v3.1
	C261.5,92.9,260.1,94.4,258.4,94.4z"/>
<path class="st0" d="M174,149.3L174,149.3c1.7,0,3.1,1.4,3.1,3.1v3.1c0,1.7-1.4,3.1-3.1,3.1l0,0c-1.7,0-3.1-1.4-3.1-3.1v-3.1
	C170.8,150.8,172.2,149.3,174,149.3z"/>
<path class="st0" d="M174,92.9L174,92.9c1.7,0,3.1,1.4,3.1,3.1v3.1c0,1.7-1.4,3.1-3.1,3.1l0,0c-1.7,0-3.1-1.4-3.1-3.1V96
	C170.8,94.3,172.2,92.9,174,92.9z"/>
<path class="st0" d="M174,130.5L174,130.5c1.7,0,3.1,1.4,3.1,3.1v3.1c0,1.7-1.4,3.1-3.1,3.1l0,0c-1.7,0-3.1-1.4-3.1-3.1v-3.1
	C170.8,131.9,172.2,130.5,174,130.5z"/>
<path class="st0" d="M174,111.7L174,111.7c1.7,0,3.1,1.4,3.1,3.1v3.1c0,1.7-1.4,3.1-3.1,3.1l0,0c-1.7,0-3.1-1.4-3.1-3.1v-3.1
	C170.8,113.1,172.2,111.7,174,111.7z"/>
<path class="st0" d="M230.7,92.3c-1.8-0.1-3.2-1.6-3-3.4c0-0.7,0.3-1.4,0.8-2l19.1-19.1c0.9-1.5,2.9-2.1,4.4-1.1
	c1.5,0.9,2.1,2.9,1.1,4.4c-0.3,0.5-0.7,0.9-1.1,1.1l-19.1,19.1C232.3,92,231.6,92.3,230.7,92.3z"/>
</svg>
