<?xml version="1.0" encoding="UTF-8" standalone="no"?>
<!-- Generator: Adobe Illustrator 20.0.0, SVG Export Plug-In . SVG Version: 6.00 Build 0)  -->

<svg
   xmlns:dc="http://purl.org/dc/elements/1.1/"
   xmlns:cc="http://creativecommons.org/ns#"
   xmlns:rdf="http://www.w3.org/1999/02/22-rdf-syntax-ns#"
   xmlns:svg="http://www.w3.org/2000/svg"
   xmlns="http://www.w3.org/2000/svg"
   xmlns:sodipodi="http://sodipodi.sourceforge.net/DTD/sodipodi-0.dtd"
   xmlns:inkscape="http://www.inkscape.org/namespaces/inkscape"
   version="1.1"
   id="Layer_1"
   x="0px"
   y="0px"
   viewBox="0 0 566.9 283.5"
   style="enable-background:new 0 0 566.9 283.5;"
   xml:space="preserve"
   sodipodi:docname="LOGO-IMEC.svg"
   inkscape:version="0.92.3 (2405546, 2018-03-11)"><metadata
   id="metadata27"><rdf:RDF><cc:Work
       rdf:about=""><dc:format>image/svg+xml</dc:format><dc:type
         rdf:resource="http://purl.org/dc/dcmitype/StillImage" /></cc:Work></rdf:RDF></metadata><defs
   id="defs25"><filter
     style="color-interpolation-filters:sRGB;"
     inkscape:label="Greyscale"
     id="filter839"><feColorMatrix
       values="0.21 0.72 0.072 0 0 0.21 0.72 0.072 0 0 0.21 0.72 0.072 0 0 0 0 0 1 0 "
       id="feColorMatrix837" /></filter></defs><sodipodi:namedview
   pagecolor="#ffffff"
   bordercolor="#666666"
   borderopacity="1"
   objecttolerance="10"
   gridtolerance="10"
   guidetolerance="10"
   inkscape:pageopacity="0"
   inkscape:pageshadow="2"
   inkscape:window-width="1680"
   inkscape:window-height="987"
   id="namedview23"
   showgrid="false"
   inkscape:zoom="0.62974067"
   inkscape:cx="283.45001"
   inkscape:cy="141.75"
   inkscape:window-x="-8"
   inkscape:window-y="-8"
   inkscape:window-maximized="1"
   inkscape:current-layer="Layer_1" />
<style
   type="text/css"
   id="style2">
	.st0{fill:#3F98BD;}
	.st1{fill:#3C3C3B;}
</style>
<g
   id="g20"
   style="filter:url(#filter839)">
	<path
   class="st0"
   d="M116,86.6h-13.8c-1.8,0-3.1,1.3-3.1,3.1v13.8c0,1.8,1.3,3.1,3.1,3.1H116c1.8,0,3.1-1.3,3.1-3.1V89.7   C119.1,87.9,117.9,86.6,116,86.6z"
   id="path4" />
	<g
   id="g18">
		<path
   class="st1"
   d="M364.5,116.8c-23.8,0-34.8,12.7-34.8,40.2c0,28.3,11.8,39.8,38.9,39.8c7.8,0,14.8-1,21.4-2.4    c1.3-0.3,2.1-1.4,2.1-2.9v-10.5c0-1.9-1.1-2.5-2.9-2.2c-7.3,1.3-12.2,2.1-19.4,2.1c-14,0-20.3-3.5-21.3-17.3h45.9    c2.2,0,3.2-1,3.2-3.2v-0.3C397.7,129.5,388,116.8,364.5,116.8z M348.7,150.8c0.6-13.7,5.6-18.3,16-18.3c10,0,14.4,4.6,15.2,18.3    H348.7z"
   id="path6" />
		<path
   class="st1"
   d="M191.1,180.3c-1.2,0.2-3.3,0.5-5.8,0.5c-6.2,0-8.5-2-8.5-12.8v-48.5c0-1.6-1-2.6-2.6-2.6h-13.8    c-1.6,0-2.6,1-2.6,2.6v50.9c0,20,7.1,26.5,23.5,26.5c4.6,0,8.5-0.5,10.2-0.8c2-0.3,2.5-1.6,2.5-3v-10.7    C193.9,180.6,192.9,179.9,191.1,180.3z"
   id="path8" />
		<path
   class="st1"
   d="M291,116.8c-4.6,0-8.5,0.5-10.2,0.8c-2,0.3-2.5,1.6-2.5,3v10.7c0,1.8,1,2.5,2.8,2.1c1.2-0.2,3.3-0.5,5.8-0.5    c6.2,0,8.5,2,8.5,12.8v48.5c0,1.6,1,2.6,2.6,2.6h13.8c1.6,0,2.6-1,2.6-2.6v-50.9C314.5,123.2,307.4,116.8,291,116.8z"
   id="path10" />
		<path
   class="st1"
   d="M247.7,116.8c-4.6,0-8.5,0.5-10.2,0.8c-2,0.3-2.5,1.6-2.5,3v10.7c0,1.8,1,2.5,2.8,2.1    c1.2-0.2,3.3-0.5,5.8-0.5c6.2,0,8.5,2,8.5,12.8v48.5c0,1.6,1,2.6,2.6,2.6h13.8c1.6,0,2.6-1,2.6-2.6v-50.9    C271.2,123.2,264.1,116.8,247.7,116.8z"
   id="path12" />
		<path
   class="st1"
   d="M204.8,116.8c-4.6,0-8.5,0.5-10.2,0.8c-2,0.3-2.5,1.6-2.5,3v10.7c0,1.8,1,2.5,2.8,2.1    c1.2-0.2,3.3-0.5,5.8-0.5c6.2,0,8.5,2,8.5,12.8v48.5c0,1.6,1,2.6,2.6,2.6h13.8c1.6,0,2.6-1,2.6-2.6v-50.9    C228.3,123.2,221.2,116.8,204.8,116.8z"
   id="path14" />
		<path
   class="st1"
   d="M464.8,179.9c-5.2,0.6-8.6,1-12.5,1c-15.6,0-20.3-4.4-20.3-24c0-19.5,4.9-24,20.2-24c4,0,7.6,0.3,12.9,0.9    c1.7,0.2,2.9-0.3,2.9-2.4v-10c0-1.4-0.8-2.5-2.2-2.9c-4.9-1.1-10.6-1.7-16.7-1.7c-25.6,0-35.9,11.6-35.9,40    c0,28.4,10.3,40,35.9,40c6.2,0,11.7-0.6,16.7-1.7c1.4-0.3,2.2-1.4,2.2-2.9v-10C467.8,180.2,466.5,179.7,464.8,179.9z"
   id="path16" />
	</g>
</g>
</svg>